<?xml version="1.0" encoding="utf-8"?>
<!-- Generator: Adobe Illustrator 19.0.0, SVG Export Plug-In . SVG Version: 6.00 Build 0)  -->
<svg version="1.1" id="Layer_1" xmlns="http://www.w3.org/2000/svg" xmlns:xlink="http://www.w3.org/1999/xlink" x="0px" y="0px"
	 viewBox="0 0 612 213" style="enable-background:new 0 0 612 213;" xml:space="preserve">
<style type="text/css">
	.st0{fill:#FFFFFF;}
</style>
<g id="XMLID_3_">
	<path id="XMLID_4_" class="st0" d="M130.6,134.1c0,9-1.5,17.2-4.5,24.7c-3,7.5-7.2,13.9-12.5,19.3c-5.4,5.4-11.8,9.5-19.3,12.4
		c-7.5,2.9-15.7,4.4-24.7,4.4s-17.2-1.5-24.7-4.4c-7.5-2.9-13.9-7-19.3-12.4c-5.4-5.4-9.5-11.8-12.5-19.3c-3-7.5-4.5-15.7-4.5-24.7
		v-0.8c0-8.3,1.2-16,3.6-23.1c2.4-7.1,6.6-15.2,12.8-24.1l45.4-67.3h19.8L48.7,79.2v0.5c3.5-1.9,7.4-3.5,11.6-4.8
		c4.2-1.2,8.6-1.8,13.2-1.8c8.4,0,16.1,1.5,23.1,4.5c6.9,3,12.9,7.1,17.9,12.4c5,5.3,8.9,11.5,11.7,18.7c2.8,7.2,4.2,15,4.2,23.5
		V134.1z M112.6,132.8c0-13.4-3.9-24.1-11.7-32.2C93,92.5,82.6,88.5,69.6,88.5c-6.3,0-12.1,1.1-17.4,3.2c-5.3,2.1-9.8,5.1-13.6,9.1
		c-3.8,4-6.7,8.7-8.8,14.1c-2.1,5.5-3.2,11.4-3.2,17.9v1.3c0,13.4,3.9,24.1,11.7,32.2c7.8,8.1,18.3,12.1,31.3,12.1
		c13,0,23.4-4,31.3-12.1c7.8-8.1,11.7-18.8,11.7-32.2V132.8z"/>
</g>
<g id="XMLID_23_">
	<g id="XMLID_24_">
		<path id="XMLID_10_" class="st0" d="M73.7,116.2H55c-0.9,0-1.6,0.7-1.6,1.6c0,0.9,0.7,1.6,1.6,1.6h18.7c0.9,0,1.6-0.7,1.6-1.6
			C75.2,116.9,74.5,116.2,73.7,116.2z"/>
	</g>
</g>
<g id="XMLID_20_">
	<g id="XMLID_21_">
		<path id="XMLID_9_" class="st0" d="M67.4,122.4H55c-0.9,0-1.6,0.7-1.6,1.6s0.7,1.6,1.6,1.6h12.5c0.9,0,1.6-0.7,1.6-1.6
			S68.3,122.4,67.4,122.4z"/>
	</g>
</g>
<g id="XMLID_15_">
	<g id="XMLID_16_">
		<path id="XMLID_17_" class="st0" d="M78.3,106.8h-28c-3.4,0-6.2,2.8-6.2,6.2v31.2c0,0.6,0.3,1.2,0.9,1.4c0.2,0.1,0.4,0.1,0.7,0.1
			c0.4,0,0.7-0.1,1-0.4l8.9-7.4h22.8c3.4,0,6.2-2.8,6.2-6.2V113C84.6,109.6,81.8,106.8,78.3,106.8z M81.4,131.7
			c0,1.7-1.4,3.1-3.1,3.1H55c-0.4,0-0.7,0.1-1,0.4l-6.8,5.7V113c0-1.7,1.4-3.1,3.1-3.1h28c1.7,0,3.1,1.4,3.1,3.1V131.7z"/>
	</g>
</g>
<g id="XMLID_12_">
	<g id="XMLID_13_">
		<path id="XMLID_2_" class="st0" d="M87.7,119.3c-0.9,0-1.6,0.7-1.6,1.6s0.7,1.6,1.6,1.6c1.7,0,3.1,1.4,3.1,3.1v26.4l-5.3-4.2
			c-0.3-0.2-0.6-0.3-1-0.3H62.7c-1.7,0-3.1-1.4-3.1-3.1v-1.6c0-0.9-0.7-1.6-1.6-1.6s-1.6,0.7-1.6,1.6v1.6c0,3.4,2.8,6.2,6.2,6.2H84
			l7.4,5.9c0.3,0.2,0.6,0.3,1,0.3c0.2,0,0.5,0,0.7-0.2c0.5-0.3,0.9-0.8,0.9-1.4v-29.6C93.9,122.1,91.1,119.3,87.7,119.3z"/>
	</g>
</g>
<g id="XMLID_14_">
	<path id="XMLID_18_" class="st0" d="M148.7,90.2h12.5v41.9c3.6-4.2,9-6.3,16.2-6.3c6.7,0,12.3,2.7,16.7,8
		c4.4,5.3,6.7,11.6,6.7,18.9c0,7.8-2.2,14.4-6.6,19.6c-4.4,5.3-10.1,7.9-17.1,7.9c-7.5,0-12.7-2.2-15.6-6.5l-0.3,4.8h-12.5V90.2z
		 M188,152.9c0-4.3-1.3-8.1-4-11.4c-2.7-3.3-6.1-4.9-10.2-4.9c-4.1,0-7.5,1.6-10.1,4.8c-2.6,3.2-3.9,7.1-3.9,11.5
		c0,4.4,1.4,8.3,4.1,11.5c2.7,3.2,6.1,4.8,10,4.8c4.3,0,7.7-1.6,10.3-4.7C186.7,161.4,188,157.5,188,152.9z"/>
	<path id="XMLID_25_" class="st0" d="M255.9,178.5h-12.3v-4.7c-3.6,4.2-9,6.3-16.2,6.3c-7.2,0-12.9-2.8-17.1-8.3
		c-4.3-5.5-6.4-12-6.4-19.4s2.2-13.7,6.5-18.9c4.4-5.2,9.9-7.8,16.7-7.8c7.2,0,12.7,2.2,16.4,6.5v-4.8h12.3V178.5z M245,152.9
		c0-4.7-1.3-8.6-4-11.7c-2.7-3.1-6.1-4.6-10.3-4.6c-4.2,0-7.6,1.5-10.2,4.5c-2.6,3-3.9,6.9-3.9,11.8c0,4.9,1.3,8.9,4,11.9
		c2.7,3,6.1,4.5,10.3,4.5c4.2,0,7.6-1.5,10.2-4.4C243.7,162,245,158,245,152.9z"/>
	<path id="XMLID_28_" class="st0" d="M278.9,132.1c3.5-4.2,8.7-6.3,15.6-6.3c11.7,0,17.6,7.2,17.6,21.6v31.2h-12.4v-27
		c0-10.8-3.3-16.2-10-16.2c-7.2,0-10.9,5.8-10.9,17.3v25.9h-12.5v-51.1h12.5V132.1z"/>
	<path id="XMLID_30_" class="st0" d="M337.9,178.5h-12.5v-39.8h-6.1v-10.2h6.1v-18.4h12.5v18.4h10v10.2h-10V178.5z"/>
	<path id="XMLID_32_" class="st0" d="M360.8,154.2c0,4.9,1.1,9,3.2,12.2c2.2,3.2,5.1,4.8,8.9,4.8c5.9,0,9.7-2.9,11.4-8.8l11.9,1.9
		c-3.9,10.6-11.6,15.9-23.3,15.9c-7.8,0-13.9-2.5-18.5-7.4c-4.6-5-6.9-11.4-6.9-19.3c0-8.4,2.2-15.1,6.7-20.1
		c4.4-5,10.5-7.6,18.1-7.6c7.6,0,13.6,2.4,17.8,7.2c4.3,4.8,6.4,11.3,6.4,19.6v1.7H360.8z M384.9,147.2c0-3.5-1.1-6.6-3.3-9.3
		c-2.2-2.7-5-4-8.5-4c-3.5,0-6.3,1.4-8.5,4.2c-2.2,2.8-3.3,5.8-3.3,9.1H384.9z"/>
	<path id="XMLID_35_" class="st0" d="M415.8,132.7c3.2-4.7,8.2-7,15-7c2.2,0,4.1,0.4,5.9,1.3l-1.6,11.4c-1.9-1.2-4-1.8-6.2-1.8
		c-8.8,0-13.2,6.3-13.2,18.9v23h-12.5v-51.1h12.5V132.7z"/>
	<path id="XMLID_37_" class="st0" d="M456.7,178.5h-12.5v-39.8h-6.1v-10.2h6.1v-18.4h12.5v18.4h10v10.2h-10V178.5z"/>
	<path id="XMLID_39_" class="st0" d="M479.6,154.2c0,4.9,1.1,9,3.2,12.2c2.2,3.2,5.1,4.8,8.9,4.8c5.9,0,9.7-2.9,11.4-8.8l11.9,1.9
		c-3.9,10.6-11.6,15.9-23.3,15.9c-7.8,0-13.9-2.5-18.5-7.4c-4.6-5-6.9-11.4-6.9-19.3c0-8.4,2.2-15.1,6.7-20.1
		c4.4-5,10.5-7.6,18.1-7.6c7.6,0,13.6,2.4,17.8,7.2c4.3,4.8,6.4,11.3,6.4,19.6v1.7H479.6z M503.7,147.2c0-3.5-1.1-6.6-3.3-9.3
		c-2.2-2.7-5-4-8.5-4c-3.5,0-6.3,1.4-8.5,4.2c-2.2,2.8-3.3,5.8-3.3,9.1H503.7z"/>
	<path id="XMLID_42_" class="st0" d="M520.3,127.4h15.5l10.6,14.3l9-14.3h15.9l-17.8,23.1l21.2,27.9H559l-14-19.1l-12.9,19.1h-16
		l21.7-27.8L520.3,127.4z"/>
	<path id="XMLID_44_" class="st0" d="M594.5,178.5H582v-39.8h-6.1v-10.2h6.1v-18.4h12.5v18.4h10v10.2h-10V178.5z"/>
</g>
</svg>
